{
  "main.css": "static/css/main.59b5f25f.css",
  "main.css.map": "static/css/main.59b5f25f.css.map",
  "main.js": "static/js/main.04dadd06.js",
  "main.js.map": "static/js/main.04dadd06.js.map",
  "static\\media\\ad.svg": "static/media/ad.c1ff9b31.svg",
  "static\\media\\ae.svg": "static/media/ae.f03dfcea.svg",
  "static\\media\\af.svg": "static/media/af.1d73ae27.svg",
  "static\\media\\ag.svg": "static/media/ag.f6adf542.svg",
  "static\\media\\ai.svg": "static/media/ai.a6b653e3.svg",
  "static\\media\\al.svg": "static/media/al.89fa1ce3.svg",
  "static\\media\\am.svg": "static/media/am.5758d3ec.svg",
  "static\\media\\ao.svg": "static/media/ao.2bfdbcc0.svg",
  "static\\media\\aq.svg": "static/media/aq.faebed7b.svg",
  "static\\media\\ar.svg": "static/media/ar.3036121f.svg",
  "static\\media\\as.svg": "static/media/as.cb630927.svg",
  "static\\media\\at.svg": "static/media/at.0d38e4d8.svg",
  "static\\media\\ath.svg": "static/media/ath.8c9065b4.svg",
  "static\\media\\au.svg": "static/media/au.ac7ddaca.svg",
  "static\\media\\aw.svg": "static/media/aw.eb2b029d.svg",
  "static\\media\\ax.svg": "static/media/ax.ee747508.svg",
  "static\\media\\az.svg": "static/media/az.d1c6ff3d.svg",
  "static\\media\\ba.svg": "static/media/ba.38a248a0.svg",
  "static\\media\\bb.svg": "static/media/bb.68cbe434.svg",
  "static\\media\\bd.svg": "static/media/bd.2f35de00.svg",
  "static\\media\\be.svg": "static/media/be.6d44f4d2.svg",
  "static\\media\\bf.svg": "static/media/bf.8c9b84ac.svg",
  "static\\media\\bg.png": "static/media/bg.dbc9c528.png",
  "static\\media\\bg.svg": "static/media/bg.e3e19305.svg",
  "static\\media\\bh.svg": "static/media/bh.834467b7.svg",
  "static\\media\\bi.svg": "static/media/bi.91d9c68a.svg",
  "static\\media\\bj.svg": "static/media/bj.f00a8e22.svg",
  "static\\media\\bl.svg": "static/media/bl.5b00ddbe.svg",
  "static\\media\\bm.svg": "static/media/bm.ec1620c5.svg",
  "static\\media\\bn.svg": "static/media/bn.82577bde.svg",
  "static\\media\\bo.svg": "static/media/bo.028edd26.svg",
  "static\\media\\bq.svg": "static/media/bq.e53fc83f.svg",
  "static\\media\\br.svg": "static/media/br.aa1e61da.svg",
  "static\\media\\bs.svg": "static/media/bs.605b854e.svg",
  "static\\media\\bt.svg": "static/media/bt.303ef8ac.svg",
  "static\\media\\bv.svg": "static/media/bv.d27dd8f0.svg",
  "static\\media\\bw.svg": "static/media/bw.16dfb7f8.svg",
  "static\\media\\by.svg": "static/media/by.8ed77d9d.svg",
  "static\\media\\bz.svg": "static/media/bz.b3d36ab7.svg",
  "static\\media\\ca.svg": "static/media/ca.b71457da.svg",
  "static\\media\\cc.svg": "static/media/cc.288f78a8.svg",
  "static\\media\\cd.svg": "static/media/cd.ed47822b.svg",
  "static\\media\\cf.svg": "static/media/cf.1b78ddbc.svg",
  "static\\media\\cg.svg": "static/media/cg.1bdb6a1b.svg",
  "static\\media\\ch.svg": "static/media/ch.6539c600.svg",
  "static\\media\\ci.svg": "static/media/ci.3ff2bcbf.svg",
  "static\\media\\ck.svg": "static/media/ck.5503398d.svg",
  "static\\media\\cl.svg": "static/media/cl.4d2a6ff9.svg",
  "static\\media\\cm.svg": "static/media/cm.5f219fa7.svg",
  "static\\media\\cn.svg": "static/media/cn.9caece66.svg",
  "static\\media\\co.svg": "static/media/co.612dec34.svg",
  "static\\media\\cr.svg": "static/media/cr.b6d92c95.svg",
  "static\\media\\cu.svg": "static/media/cu.72cb307a.svg",
  "static\\media\\cv.svg": "static/media/cv.97839333.svg",
  "static\\media\\cw.svg": "static/media/cw.c2c720ba.svg",
  "static\\media\\cx.svg": "static/media/cx.09db1384.svg",
  "static\\media\\cy.svg": "static/media/cy.9296b2fd.svg",
  "static\\media\\cz.svg": "static/media/cz.9c5898c6.svg",
  "static\\media\\de.svg": "static/media/de.85f98c37.svg",
  "static\\media\\dj.svg": "static/media/dj.16e3de24.svg",
  "static\\media\\dk.svg": "static/media/dk.b4ba001c.svg",
  "static\\media\\dm.svg": "static/media/dm.d065af05.svg",
  "static\\media\\do.svg": "static/media/do.2e442413.svg",
  "static\\media\\dz.svg": "static/media/dz.9740dff8.svg",
  "static\\media\\ec.svg": "static/media/ec.94317bef.svg",
  "static\\media\\ee.svg": "static/media/ee.90c0c1da.svg",
  "static\\media\\eg.svg": "static/media/eg.99dfda5e.svg",
  "static\\media\\eh.svg": "static/media/eh.95dbb84c.svg",
  "static\\media\\er.svg": "static/media/er.67f5cd29.svg",
  "static\\media\\es.svg": "static/media/es.24eff4ba.svg",
  "static\\media\\et.svg": "static/media/et.a82a19b3.svg",
  "static\\media\\eu.svg": "static/media/eu.7b4534d2.svg",
  "static\\media\\fi.svg": "static/media/fi.f92afcfd.svg",
  "static\\media\\fj.svg": "static/media/fj.2739c665.svg",
  "static\\media\\fk.svg": "static/media/fk.73b91eb5.svg",
  "static\\media\\fm.svg": "static/media/fm.cfc37567.svg",
  "static\\media\\fo.svg": "static/media/fo.7dc70ebf.svg",
  "static\\media\\fr.svg": "static/media/fr.f85e9b61.svg",
  "static\\media\\ga.svg": "static/media/ga.b8cd2c39.svg",
  "static\\media\\gb-eng.svg": "static/media/gb-eng.797c586f.svg",
  "static\\media\\gb-nir.svg": "static/media/gb-nir.2e9c71c7.svg",
  "static\\media\\gb-sct.svg": "static/media/gb-sct.d1d305dc.svg",
  "static\\media\\gb-wls.svg": "static/media/gb-wls.acae1774.svg",
  "static\\media\\gb.svg": "static/media/gb.2e9c71c7.svg",
  "static\\media\\gd.svg": "static/media/gd.ab061a1f.svg",
  "static\\media\\ge.svg": "static/media/ge.c9a85b6e.svg",
  "static\\media\\gf.svg": "static/media/gf.4904eaca.svg",
  "static\\media\\gg.svg": "static/media/gg.d080b3f9.svg",
  "static\\media\\gh.svg": "static/media/gh.a25f96eb.svg",
  "static\\media\\gi.svg": "static/media/gi.0ad62abd.svg",
  "static\\media\\gl.svg": "static/media/gl.ba08dffb.svg",
  "static\\media\\gm.svg": "static/media/gm.8cdda75e.svg",
  "static\\media\\gn.svg": "static/media/gn.5ab79ace.svg",
  "static\\media\\gp.svg": "static/media/gp.85556bea.svg",
  "static\\media\\gq.svg": "static/media/gq.8be10c94.svg",
  "static\\media\\gr.svg": "static/media/gr.b41b5f52.svg",
  "static\\media\\gs.svg": "static/media/gs.6b4bf37b.svg",
  "static\\media\\gt.svg": "static/media/gt.1274b415.svg",
  "static\\media\\gu.svg": "static/media/gu.2a95d57a.svg",
  "static\\media\\gw.svg": "static/media/gw.7ffcfa41.svg",
  "static\\media\\gy.svg": "static/media/gy.8993c26d.svg",
  "static\\media\\hk.svg": "static/media/hk.98d52d17.svg",
  "static\\media\\hm.svg": "static/media/hm.ac7ddaca.svg",
  "static\\media\\hn.svg": "static/media/hn.81ab9078.svg",
  "static\\media\\hr.svg": "static/media/hr.3e56776d.svg",
  "static\\media\\ht.svg": "static/media/ht.5efda060.svg",
  "static\\media\\hu.svg": "static/media/hu.2e0e3e50.svg",
  "static\\media\\id.svg": "static/media/id.1a2f72a1.svg",
  "static\\media\\ie.svg": "static/media/ie.16bd1441.svg",
  "static\\media\\il.svg": "static/media/il.71dbb460.svg",
  "static\\media\\im.svg": "static/media/im.867a7ad8.svg",
  "static\\media\\in.svg": "static/media/in.f3a60ba3.svg",
  "static\\media\\io.svg": "static/media/io.8daa0f5a.svg",
  "static\\media\\iq.svg": "static/media/iq.0ab76ff4.svg",
  "static\\media\\ir.svg": "static/media/ir.6d32f579.svg",
  "static\\media\\is.svg": "static/media/is.804c997b.svg",
  "static\\media\\it.svg": "static/media/it.48651b91.svg",
  "static\\media\\je.svg": "static/media/je.89207890.svg",
  "static\\media\\jm.svg": "static/media/jm.fcb8c1e5.svg",
  "static\\media\\jo.svg": "static/media/jo.5a774ea7.svg",
  "static\\media\\jp.svg": "static/media/jp.a1e1ea51.svg",
  "static\\media\\ke.svg": "static/media/ke.f50e23ed.svg",
  "static\\media\\kg.svg": "static/media/kg.094c4395.svg",
  "static\\media\\kh.svg": "static/media/kh.5b110315.svg",
  "static\\media\\ki.svg": "static/media/ki.472c5f4a.svg",
  "static\\media\\km.svg": "static/media/km.6d074963.svg",
  "static\\media\\kn.svg": "static/media/kn.1ab2d7d4.svg",
  "static\\media\\kp.svg": "static/media/kp.a9f988e5.svg",
  "static\\media\\kr.svg": "static/media/kr.6031b375.svg",
  "static\\media\\kw.svg": "static/media/kw.7a17a936.svg",
  "static\\media\\ky.svg": "static/media/ky.33156830.svg",
  "static\\media\\kz.svg": "static/media/kz.e08cb0b3.svg",
  "static\\media\\la.svg": "static/media/la.b76f93a9.svg",
  "static\\media\\lb.svg": "static/media/lb.f1d34347.svg",
  "static\\media\\lc.svg": "static/media/lc.e094620d.svg",
  "static\\media\\li.svg": "static/media/li.071b1d57.svg",
  "static\\media\\lk.svg": "static/media/lk.d9b19b4f.svg",
  "static\\media\\logo.png": "static/media/logo.f39c693d.png",
  "static\\media\\lr.svg": "static/media/lr.177182a8.svg",
  "static\\media\\ls.svg": "static/media/ls.fac1d814.svg",
  "static\\media\\lt.svg": "static/media/lt.fe3ee2df.svg",
  "static\\media\\lu.svg": "static/media/lu.4e06269e.svg",
  "static\\media\\lv.svg": "static/media/lv.9fa6c690.svg",
  "static\\media\\ly.svg": "static/media/ly.592a5116.svg",
  "static\\media\\ma.svg": "static/media/ma.e11a0692.svg",
  "static\\media\\mc.svg": "static/media/mc.1a5f2602.svg",
  "static\\media\\md.svg": "static/media/md.7e4c0d86.svg",
  "static\\media\\me.svg": "static/media/me.d8e4f69a.svg",
  "static\\media\\mf.svg": "static/media/mf.85556bea.svg",
  "static\\media\\mg.svg": "static/media/mg.65482ca5.svg",
  "static\\media\\mh.svg": "static/media/mh.8711b04d.svg",
  "static\\media\\mk.svg": "static/media/mk.c8fb5218.svg",
  "static\\media\\ml.svg": "static/media/ml.bc4af821.svg",
  "static\\media\\mm.svg": "static/media/mm.1809db77.svg",
  "static\\media\\mn.svg": "static/media/mn.2dbebe3b.svg",
  "static\\media\\mo.svg": "static/media/mo.b759f9c2.svg",
  "static\\media\\mp.svg": "static/media/mp.451bfdba.svg",
  "static\\media\\mq.svg": "static/media/mq.8c1db4f3.svg",
  "static\\media\\mr.svg": "static/media/mr.e12cbc42.svg",
  "static\\media\\ms.svg": "static/media/ms.b2e6e723.svg",
  "static\\media\\mt.svg": "static/media/mt.dcb55d42.svg",
  "static\\media\\mu.svg": "static/media/mu.25dc81a7.svg",
  "static\\media\\mv.svg": "static/media/mv.dd23d996.svg",
  "static\\media\\mw.svg": "static/media/mw.479bfd88.svg",
  "static\\media\\mx.svg": "static/media/mx.52933b99.svg",
  "static\\media\\my.svg": "static/media/my.07fd2be8.svg",
  "static\\media\\mz.svg": "static/media/mz.bc33186e.svg",
  "static\\media\\na.svg": "static/media/na.8114f3f9.svg",
  "static\\media\\nc.svg": "static/media/nc.5abc98ed.svg",
  "static\\media\\ne.svg": "static/media/ne.0c432227.svg",
  "static\\media\\nf.svg": "static/media/nf.6860552f.svg",
  "static\\media\\ng.svg": "static/media/ng.edb0fc52.svg",
  "static\\media\\ni.svg": "static/media/ni.585b69e1.svg",
  "static\\media\\nl.svg": "static/media/nl.e53fc83f.svg",
  "static\\media\\no.svg": "static/media/no.d27dd8f0.svg",
  "static\\media\\np.svg": "static/media/np.5350291f.svg",
  "static\\media\\nr.svg": "static/media/nr.2526a443.svg",
  "static\\media\\nu.svg": "static/media/nu.4388f2f8.svg",
  "static\\media\\nz.svg": "static/media/nz.b14c3467.svg",
  "static\\media\\om.svg": "static/media/om.8ced3158.svg",
  "static\\media\\pa.svg": "static/media/pa.68029990.svg",
  "static\\media\\pe.svg": "static/media/pe.23f4fbf5.svg",
  "static\\media\\pf.svg": "static/media/pf.1c09f581.svg",
  "static\\media\\pg.svg": "static/media/pg.d2ad1883.svg",
  "static\\media\\ph.svg": "static/media/ph.dfa513c1.svg",
  "static\\media\\pk.svg": "static/media/pk.52975d36.svg",
  "static\\media\\pl.svg": "static/media/pl.1f9d98ad.svg",
  "static\\media\\pm.svg": "static/media/pm.85556bea.svg",
  "static\\media\\pn.svg": "static/media/pn.b92c8225.svg",
  "static\\media\\pr.svg": "static/media/pr.8eb64a78.svg",
  "static\\media\\ps.svg": "static/media/ps.8f640b1a.svg",
  "static\\media\\pt.svg": "static/media/pt.8399d871.svg",
  "static\\media\\pw.svg": "static/media/pw.ecb48bb7.svg",
  "static\\media\\py.svg": "static/media/py.2d2b51ec.svg",
  "static\\media\\qa.svg": "static/media/qa.c58b6395.svg",
  "static\\media\\re.svg": "static/media/re.85556bea.svg",
  "static\\media\\ro.svg": "static/media/ro.af9e2aae.svg",
  "static\\media\\rs.svg": "static/media/rs.e0acf82f.svg",
  "static\\media\\ru.svg": "static/media/ru.7a8b3a7d.svg",
  "static\\media\\rw.svg": "static/media/rw.559f166d.svg",
  "static\\media\\sa.svg": "static/media/sa.e9b568d8.svg",
  "static\\media\\sb.svg": "static/media/sb.79392615.svg",
  "static\\media\\sc.svg": "static/media/sc.90c9327b.svg",
  "static\\media\\sd.svg": "static/media/sd.16a2cbb1.svg",
  "static\\media\\se.svg": "static/media/se.c37f1b98.svg",
  "static\\media\\sg.svg": "static/media/sg.4ebd9325.svg",
  "static\\media\\sh.svg": "static/media/sh.2e9c71c7.svg",
  "static\\media\\si.svg": "static/media/si.925e1976.svg",
  "static\\media\\sj.svg": "static/media/sj.d27dd8f0.svg",
  "static\\media\\sk.svg": "static/media/sk.f430be3d.svg",
  "static\\media\\sl.svg": "static/media/sl.18e65344.svg",
  "static\\media\\sm.svg": "static/media/sm.16dab5ad.svg",
  "static\\media\\sn.svg": "static/media/sn.d488be6f.svg",
  "static\\media\\so.svg": "static/media/so.6e5f1337.svg",
  "static\\media\\sr.svg": "static/media/sr.6905244b.svg",
  "static\\media\\ss.svg": "static/media/ss.de6a1495.svg",
  "static\\media\\st.svg": "static/media/st.f48819e9.svg",
  "static\\media\\sv.svg": "static/media/sv.20aad359.svg",
  "static\\media\\sx.svg": "static/media/sx.a4ac1b11.svg",
  "static\\media\\sy.svg": "static/media/sy.2505dfa5.svg",
  "static\\media\\sz.svg": "static/media/sz.b6570643.svg",
  "static\\media\\tc.svg": "static/media/tc.abb6f012.svg",
  "static\\media\\td.svg": "static/media/td.873d5c4b.svg",
  "static\\media\\tf.svg": "static/media/tf.0d67cd70.svg",
  "static\\media\\tg.svg": "static/media/tg.5e565ac5.svg",
  "static\\media\\th.svg": "static/media/th.fd3b2e9c.svg",
  "static\\media\\tj.svg": "static/media/tj.c8b3c494.svg",
  "static\\media\\tk.svg": "static/media/tk.fce85915.svg",
  "static\\media\\tl.svg": "static/media/tl.f34c9a01.svg",
  "static\\media\\tm.svg": "static/media/tm.2c41cd01.svg",
  "static\\media\\tn.svg": "static/media/tn.08334106.svg",
  "static\\media\\to.svg": "static/media/to.f4d05f56.svg",
  "static\\media\\tr.svg": "static/media/tr.2254e9c0.svg",
  "static\\media\\tt.svg": "static/media/tt.9cde2b9e.svg",
  "static\\media\\tv.svg": "static/media/tv.04bf00cb.svg",
  "static\\media\\tw.svg": "static/media/tw.3c944f89.svg",
  "static\\media\\tz.svg": "static/media/tz.9043b37f.svg",
  "static\\media\\ua.svg": "static/media/ua.1aeecd60.svg",
  "static\\media\\ug.svg": "static/media/ug.b408dce8.svg",
  "static\\media\\um.svg": "static/media/um.aefba3fe.svg",
  "static\\media\\us.svg": "static/media/us.aefba3fe.svg",
  "static\\media\\uy.svg": "static/media/uy.a15df864.svg",
  "static\\media\\uz.svg": "static/media/uz.a4884a96.svg",
  "static\\media\\va.svg": "static/media/va.d6ee6901.svg",
  "static\\media\\vc.svg": "static/media/vc.903f8e2f.svg",
  "static\\media\\ve.svg": "static/media/ve.d6be56f1.svg",
  "static\\media\\vg.svg": "static/media/vg.6b4e6688.svg",
  "static\\media\\vi.svg": "static/media/vi.b219f68d.svg",
  "static\\media\\vn.svg": "static/media/vn.ed3249c2.svg",
  "static\\media\\vu.svg": "static/media/vu.f0b65910.svg",
  "static\\media\\wf.svg": "static/media/wf.850539e1.svg",
  "static\\media\\ws.svg": "static/media/ws.69b52e9a.svg",
  "static\\media\\xk.svg": "static/media/xk.e62eb493.svg",
  "static\\media\\ye.svg": "static/media/ye.9802a254.svg",
  "static\\media\\yt.svg": "static/media/yt.85556bea.svg",
  "static\\media\\za.svg": "static/media/za.a57b9a59.svg",
  "static\\media\\zm.svg": "static/media/zm.2b5f9a1c.svg",
  "static\\media\\zw.svg": "static/media/zw.c698f808.svg"
}